%YAML 1.1
%TAG !u! tag:unity3d.com,2011:
--- !u!114 &11400000
MonoBehaviour:
  m_ObjectHideFlags: 0
  m_CorrespondingSourceObject: {fileID: 0}
  m_PrefabInstance: {fileID: 0}
  m_PrefabAsset: {fileID: 0}
  m_GameObject: {fileID: 0}
  m_Enabled: 1
  m_EditorHideFlags: 0
  m_Script: {fileID: 11500000, guid: abdf23a4c2ab81345a8ea82761ce6f50, type: 3}
  m_Name: ironsource
  m_EditorClassIdentifier: 
  appKeyIos: acc9e3f5
  appKeyAndroid: b7eacf9d
  consent: 0
